"Gebiet","Sachmerkmal","11.09.1994","19.09.1999","19.09.2004","30.08.2009","31.08.2014"
Zentrum,Wahlbeteiligung,"53,1578947368421","56,9002123142251","50,4396482813749","44,8837209302326","40,7142857142857"
Zentrum-Ost,Wahlbeteiligung,"55,4886521537749","56,8627450980392","55,3659631791648","53,1204111600587","50,9208103130755"
Zentrum-Südost,Wahlbeteiligung,"58,1743359521137","57,8318519597844","55,8262108262108","49,8671142817177","44,2255346727155"
Zentrum-Süd,Wahlbeteiligung,"53,1140939597315","59,9909652160819","60,2587558808155","58,1567673960866","54,1257874625633"
Zentrum-West,Wahlbeteiligung,"51,4572089437163","59,39453125","58,52487135506","56,3912009512485","52,890365448505"
Zentrum-Nordwest,Wahlbeteiligung,"50,4796163069544","56,5997130559541","63,4378790504245","60,0923387678546","57,6692030436524"
Zentrum-Nord,Wahlbeteiligung,"55,8339429407462","60,7233943890563","59,9427753934192","54,6450082131776","49,9121265377856"
Schönefeld-Abtnaundorf,Wahlbeteiligung,"43,7556334501753","47,8958442924776","47,4701139838755","39,2894056847545","32,3816155988858"
Schönefeld-Ost,Wahlbeteiligung,"60,9558605707515","61,5132656403538","59,4847775175644","51,692159460436","43,4672731867576"
Mockau-Süd,Wahlbeteiligung,"44,2171303873432","50,9861642625846","49,9699157641396","40,3018625561978","31,1156304474143"
Mockau-Nord,Wahlbeteiligung,"52,7020408163265","56,618348273889","54,5244107744108","46,4045067933282","38,5191618716752"
Thekla,Wahlbeteiligung,"49,4091454016099","54,6460980036298","53,7007240547064","47,7064220183486","42,3108218063466"
Plaußig-Portitz,Wahlbeteiligung,"49,0196078431373","61,6330545991146","59,6551724137931","56,8348426045709","53,7224264705882"
Neustadt-Neuschönefeld,Wahlbeteiligung,"39,0978432403998","43,2046707752189","64,3151087595532","35,4624085163007","33,672445909156"
Volkmarsdorf,Wahlbeteiligung,"37,7601253076751","38,8548734072481","63,1302060499781","32,2320255303173","26,1839396019218"
Anger-Crottendorf,Wahlbeteiligung,"47,0372492836676","50,4272176479727","44,1156346219637","41,5530772408096","37,8994861511468"
Sellerhausen-Stünz,Wahlbeteiligung,"53,1416031416031","59,361856417694","38,8349514563107","49,3019726858877","42,7565543071161"
Paunsdorf,Wahlbeteiligung,"48,2489966160384","50,6707550785742","48,726902371599","40,7697547683924","33,3242358078603"
Heiterblick,Wahlbeteiligung,"47,6454293628809","63,9729441082236","58,1735849056604","55,9072922555116","49,8329790464622"
Mölkau,Wahlbeteiligung,"0","66,6734569158688","49,4690191487583","59,2416158536585","54,9800796812749"
Engelsdorf,Wahlbeteiligung,"0","60,4674457429048","60,5960264900662","52,5014459224986","44,4880292168267"
Baalsdorf,Wahlbeteiligung,"0","66,121270452358","65,9860086972963","64,2961876832845","57,2036905606813"
Althen-Kleinpösna,Wahlbeteiligung,"0","51,7066085693537","58,7911247130834","47,3448854108441","44,6408209806157"
Reudnitz-Thonberg,Wahlbeteiligung,"45,555137372977","48,0023750954279","69,410815173527","45,5974133393488","42,8411116245297"
Stötteritz,Wahlbeteiligung,"53,4911680384722","58,2948341033179","54,3689320388349","48,3870967741936","44,5618847829595"
Probstheida,Wahlbeteiligung,"57,1749598715891","63,1077694235589","49,9460804645375","55,035685963521","51,9331649504566"
Meusdorf,Wahlbeteiligung,"45,956204379562","55,8759689922481","56,7257945306726","47,6360103626943","40,639891082369"
Liebertwolkwitz,Wahlbeteiligung,"0","53,7790029864461","59,5881863560732","46,7567567567568","41,8983050847458"
Holzhausen,Wahlbeteiligung,"0","62,5246159905475","56,6590687072615","55,779269202088","51,6190476190476"
Südvorstadt,Wahlbeteiligung,"51,5874070138151","58,5989737210387","54,7891842346471","57,8856055518245","55,1609673850045"
Connewitz,Wahlbeteiligung,"49,8890532544379","54,8648394084958","62,2716894977169","54,887931663868","51,5176486746326"
Marienbrunn,Wahlbeteiligung,"62,6748251748252","67,9777436684574","61,8587213891081","62,6897133220911","56,6328600405679"
Lößnig,Wahlbeteiligung,"56,7065547419182","56,9257303007438","58,2645297069775","49,7881598534295","42,6419866636008"
Dölitz-Dösen,Wahlbeteiligung,"47,6962457337884","53,5471930906848","68,8521019385755","50,5563909774436","44,9958182325063"
Schleußig,Wahlbeteiligung,"49,6671289875173","59,8634053367217","56,753950859384","62,9592406476829","60,9123039540535"
Plagwitz,Wahlbeteiligung,"42,4957118353345","46,5007776049767","55,7875345409886","45,0340136054422","44,8796263025512"
Kleinzschocher,Wahlbeteiligung,"45,050965665236","49,3815708101422","64,1545769675183","38,151211725439","34,8994213281896"
Großzschocher,Wahlbeteiligung,"54,6351633078527","60,4679306171844","48,4480600750939","50,1976788674914","45,0308959835221"
Knautkleeberg-Knauthain,Wahlbeteiligung,"49,6512529062258","62,0197300103842","46,6998754669988","55,1171965653284","52,9084588644264"
Hartmannsdorf-Knautnaundorf,Wahlbeteiligung,"0","53,8540596094553","59,3590582079791","52,0076481835564","51,4485514485514"
Schönau,Wahlbeteiligung,"51,4894497310716","50,8736101656456","60,9709204518145","43,1914363953199","38,7813211845102"
Grünau-Ost,Wahlbeteiligung,"52,1567035420684","54,7760325770797","61,010101010101","47,2996771353097","40,9538461538462"
Grünau-Mitte,Wahlbeteiligung,"51,261628260473","50,3609973948642","53,3993576017131","41,3918672870726","34,0640629988294"
Grünau-Siedlung,Wahlbeteiligung,"52,321083172147","57,9561628237973","55,6076054009369","56,043956043956","52,4096385542169"
Lausen-Grünau,Wahlbeteiligung,"48,1088678763097","51,1065989847716","50,3341404358354","42,8571428571429","35,1036525172754"
Grünau-Nord,Wahlbeteiligung,"47,5439761035513","47,8053725291434","59,9070784367313","38,1318847140486","30,992125984252"
Miltitz,Wahlbeteiligung,"0","57,0863546473303","51,0496671786994","53,6342321219226","49,540159411404"
Lindenau,Wahlbeteiligung,"38,2601581674393","41,6239316239316","45,7221350078493","37,8791441335528","41,2818096135721"
Altlindenau,Wahlbeteiligung,"37,8031527890057","42,0597196831201","59,7895967270602","36,613801071316","35,6982889904148"
Neulindenau,Wahlbeteiligung,"49,0496948561465","50,6555153707052","41,9117647058824","40,6509253350351","35,859375"
Leutzsch,Wahlbeteiligung,"48,280442804428","53,7387256328193","41,5891891891892","47,0137825421133","40,6406792744114"
Böhlitz-Ehrenberg,Wahlbeteiligung,"0","54,7629404088734","50,1754385964912","49,7110522513845","44,6803435114504"
Burghausen-Rückmarsdorf,Wahlbeteiligung,"0","0","52,4243740049211","55,5121951219512","51,0398825544409"
Möckern,Wahlbeteiligung,"49,6520499706548","54,9120508982036","56,0966306420852","43,7577728881661","37,0802109353317"
Wahren,Wahlbeteiligung,"49,3827160493827","54,9751737835154","59,756400695998","45,2496599961142","40,6690777576854"
Lützschena-Stahmeln,Wahlbeteiligung,"0","61,6548940464178","51,9992217141745","54,5350172215844","54,2617046818728"
Lindenthal,Wahlbeteiligung,"0","56,1649659863946","53,7972166998012","49,1854759568204","42,8544279741543"
Gohlis-Süd,Wahlbeteiligung,"47,0700958144226","55,1249850496352","61,7819460726846","52,1749958492446","49,8194945848375"
Gohlis-Mitte,Wahlbeteiligung,"50,5538513974097","58,3549963606114","56,8930459536397","53,0944040240726","48,659626320065"
Gohlis-Nord,Wahlbeteiligung,"60,8799363901405","62,8647214854111","56,6551259857665","52,8813073394495","45,6174740968916"
Eutritzsch,Wahlbeteiligung,"47,6590636254502","51,9570923199817","58,1277973526331","43,2630313626926","38,5479342158043"
Seehausen,Wahlbeteiligung,"0","56,414762741652","61,6881298992161","51,4317798989332","43,9752252252252"
Wiederitzsch,Wahlbeteiligung,"0","61,600471883602","50,9267949319568","54,320987654321","49,5473130841121"
Mitte,Wahlbeteiligung,"54,0394973070018","58,6972903902231","62,5581395348837","55,3880528018902","51,5130466995439"
Nordost,Wahlbeteiligung,"51,290718403445","55,5369347194218","61,0928961748634","46,419829502293","38,8642315644383"
Ost,Wahlbeteiligung,"45,4618406048064","53,1018095412173","50,7758676195995","45,430266530444","39,5938732074945"
Südost,Wahlbeteiligung,"49,5822181604543","55,4466661397824","57,2183814558764","49,0078622238862","45,1272542657219"
Süd,Wahlbeteiligung,"53,5027858160929","58,049017228828","57,5334496800465","55,5420017780718","51,3949089762787"
Südwest,Wahlbeteiligung,"48,1728183818137","55,1977365208545","55,4004883420309","50,327745679716","47,7200947493091"
West,Wahlbeteiligung,"49,9547949628673","51,4819897695475","53,8700504217746","44,0199878578434","37,4559255631734"
Alt-West,Wahlbeteiligung,"43,0637057492425","48,893346706787","46,7939406515875","44,1099201345103","40,6435264869"
Nordwest,Wahlbeteiligung,"49,5807644882861","56,034188034188","54,6641173658859","46,7719922246578","41,390927686199"
Nord,Wahlbeteiligung,"50,9223585844411","57,4317517261715","57,128538655144","51,0659622893654","46,5292926145217"
Stadt Leipzig,Wahlbeteiligung,"49,8081183523903","54,7845594894804","55,1199805724057","48,9309403704717","44,2774400680971"
Zentrum,Stimmenanteile CDU,"44,831013916501","45,3621346886912","31,9870759289176","32,5823223570191","30,3921568627451"
Zentrum-Ost,Stimmenanteile CDU,"46,2573591253154","45,8928571428571","31,1111111111111","28,8609364081062","26,8203883495146"
Zentrum-Südost,Stimmenanteile CDU,"42,4183430672723","40,0560938296787","26,7290691627665","24,113475177305","25,2150697122516"
Zentrum-Süd,Stimmenanteile CDU,"43,0286006128703","40,8940817881636","26,5382912793271","26,3486312399356","24,6920708237105"
Zentrum-West,Stimmenanteile CDU,"45,2229299363057","42,2259136212625","27,9152997315837","28,3018867924528","26,2506316321374"
Zentrum-Nordwest,Stimmenanteile CDU,"44,3267259056733","46,3073005093379","31,3067400275103","30,0024195499637","28,508261577845"
Zentrum-Nord,Stimmenanteile CDU,"48,2849604221636","47,8965650328059","31,4266023432116","32,2395128552097","28,9226787447428"
Schönefeld-Abtnaundorf,Stimmenanteile CDU,"48,7043035631652","48,1058495821727","30,9679334916865","30,040187541862","28,6751361161525"
Schönefeld-Ost,Stimmenanteile CDU,"48,5915492957746","47,1075869526041","32,6758318390118","33,0016583747927","35,0088183421517"
Mockau-Süd,Stimmenanteile CDU,"50,7807620237352","49,7949619214997","33,0269607843137","31,1541565778854","29,2060491493384"
Mockau-Nord,Stimmenanteile CDU,"49,945201189917","48,8998806071977","32,8296703296703","33,4060606060606","34,7913093196112"
Thekla,Stimmenanteile CDU,"51,4747191011236","50,9777478084963","36,8500948766603","37,1173469387755","38,2710053423992"
Plaußig-Portitz,Stimmenanteile CDU,"63,0434782608696","58,3333333333333","41,4925373134328","40,1073619631902","41,0454155955441"
Neustadt-Neuschönefeld,Stimmenanteile CDU,"48,1886534518113","45,9480122324159","43,7384898710866","27,5107091861019","20,2917202917203"
Volkmarsdorf,Stimmenanteile CDU,"46,5444711538462","45,9447799827437","43,2090077410274","25,1781472684086","19,1798941798942"
Anger-Crottendorf,Stimmenanteile CDU,"47,5110892065057","45,3295845048422","26,9520412207689","28,222296618681","24,7666666666667"
Sellerhausen-Stünz,Stimmenanteile CDU,"51,2510974539069","47,1754212091179","26,3984298331698","32,9787234042553","31,2477781727693"
Paunsdorf,Stimmenanteile CDU,"50,7514450867052","49,202942979767","31,1629315566323","30,3617021276596","31,4159292035398"
Heiterblick,Stimmenanteile CDU,"53,935860058309","48,8463702870006","34,2699579831933","35,1462288353002","33,1288343558282"
Mölkau,Stimmenanteile CDU,"0","52,2833178005592","31,9758412424504","42,1940928270042","43,8206343419614"
Engelsdorf,Stimmenanteile CDU,"0","51,8204911092295","35,9233097880928","41,1929431531784","42,0712968653964"
Baalsdorf,Stimmenanteile CDU,"0","44,8175182481752","43,1024447031432","44,2660550458716","45,5790784557908"
Althen-Kleinpösna,Stimmenanteile CDU,"0","50","43,6315789473684","43,6754176610979","44,9163449163449"
Reudnitz-Thonberg,Stimmenanteile CDU,"46,5373034459686","44,8572967151319","41,8224299065421","25,4045037531276","21,9766536964981"
Stötteritz,Stimmenanteile CDU,"49,8081618416463","49,234693877551","41,5158371040724","32,8792007266122","31,1163895486936"
Probstheida,Stimmenanteile CDU,"49,0672696438666","47,5462590506838","27,1372947350601","34,936247723133","34,7793285552622"
Meusdorf,Stimmenanteile CDU,"56,2820512820513","55","33,0191798941799","34,6418732782369","37,5527426160338"
Liebertwolkwitz,Stimmenanteile CDU,"0","54,9760973489787","34,3473646975593","40,3422982885086","40,6695938529089"
Holzhausen,Stimmenanteile CDU,"0","53,792","36,6705471478463","39,8712737127371","41,7877094972067"
Südvorstadt,Stimmenanteile CDU,"46,8660598179454","42,0165819737898","42,1815083084789","21,6855690262026","19,5403404173478"
Connewitz,Stimmenanteile CDU,"52,1926389976507","46,9373590144022","41,671826625387","23,4068461642538","19,5371367061356"
Marienbrunn,Stimmenanteile CDU,"51,6011235955056","49,1901108269395","24,8335123523093","35,8703071672355","32,9960245753524"
Lößnig,Stimmenanteile CDU,"47,4578964092787","44,4231872967285","27,8052223006351","30,3838951310861","30,5449591280654"
Dölitz-Dösen,Stimmenanteile CDU,"51,9277108433735","50,1165501165501","34,1580976863753","32,4503311258278","33,5625"
Schleußig,Stimmenanteile CDU,"46,060434905394","44,3221476510067","29,8510550268928","25,2289459507991","20,6858810653046"
Plagwitz,Stimmenanteile CDU,"48,7205731832139","46,2350936967632","35,9888579387187","25,3424657534247","21,1925866236906"
Kleinzschocher,Stimmenanteile CDU,"49,2893861505897","46,7860569235689","30,4277643260694","28,0864197530864","25,5515443241075"
Großzschocher,Stimmenanteile CDU,"51,8413597733711","49,696151249156","30,2665969681129","33,592534992224","35,8654682516672"
Knautkleeberg-Knauthain,Stimmenanteile CDU,"55,2356020942408","51,7607127704709","28,7470126322977","35,2088661551577","38,5809312638581"
Hartmannsdorf-Knautnaundorf,Stimmenanteile CDU,"0","55,5984555984556","34,366576819407","40,8582089552239","45,4011741682975"
Schönau,Stimmenanteile CDU,"47,2120472120472","44,5652173913044","37,1212121212121","26,7367192060712","29,1233283803863"
Grünau-Ost,Stimmenanteile CDU,"47,899822520213","45,0786129657549","44,3507588532884","28,9373814041746","30,1757066462949"
Grünau-Mitte,Stimmenanteile CDU,"46,990267932236","43,8042502244837","27,1421241662391","27,9144916728809","28,9607097591888"
Grünau-Siedlung,Stimmenanteile CDU,"51,7779164067374","51,7839444995045","30,4642409033877","40,5122843700993","39,6292004634994"
Lausen-Grünau,Stimmenanteile CDU,"47,85656511189","46,1682995571064","28,6944607555295","26,7738231917336","29,9145299145299"
Grünau-Nord,Stimmenanteile CDU,"46,7644978783593","43,6074042186827","40,589047399908","28,0177634234962","27,3291925465839"
Miltitz,Stimmenanteile CDU,"0","51,1792452830189","28,9884589273591","37","38,4711779448622"
Lindenau,Stimmenanteile CDU,"50,6493506493507","46,25520110957","27,4818049490539","23,8397965670693","16,1364684186261"
Altlindenau,Stimmenanteile CDU,"49,0933694181326","45,9499263622975","34,8214285714286","26,5336072791312","20,5343511450382"
Neulindenau,Stimmenanteile CDU,"48,5910404624277","44,631483166515","29,440688383528","32,0663811563169","29,7625621203755"
Leutzsch,Stimmenanteile CDU,"47,2316733683885","47,0153340635268","27,6601376389624","33,2931968693558","31,6395014381592"
Böhlitz-Ehrenberg,Stimmenanteile CDU,"0","53,7453183520599","28,4961685823755","42,0058852378617","39,7687550416779"
Burghausen-Rückmarsdorf,Stimmenanteile CDU,"0","0","32,3718846261551","39,1285015562472","41,3442940038685"
Möckern,Stimmenanteile CDU,"50,3327077290565","49,5590523949507","38,5268471776044","32,5622775800712","32,7272727272727"
Wahren,Stimmenanteile CDU,"50,2160345655305","49,4890510948905","40,2701561840439","34,3777197563098","35,6887298747764"
Lützschena-Stahmeln,Stimmenanteile CDU,"0","54,9694614103276","34,3983164339009","38,169164882227","39,2638036809816"
Lindenthal,Stimmenanteile CDU,"0","56,6168009205984","34,7809809060277","39,6600566572238","41,0891089108911"
Gohlis-Süd,Stimmenanteile CDU,"48,559670781893","46,6593886462882","38,7686387686388","31,2038523274478","29,4947655894401"
Gohlis-Mitte,Stimmenanteile CDU,"48,8407773610638","47,1010590558248","41,1038489469862","32,3353293413174","29,9580184718724"
Gohlis-Nord,Stimmenanteile CDU,"45,9656084656085","43,0910722296994","34,7624764191391","31,2103666942377","31,8647223084083"
Eutritzsch,Stimmenanteile CDU,"51,4000848536275","49,9222395023328","33,7748344370861","34,0092402464066","33,5609243697479"
Seehausen,Stimmenanteile CDU,"0","65,9282700421941","32,0680929376582","38,8950276243094","42,9677419354839"
Wiederitzsch,Stimmenanteile CDU,"0","56,5329052969502","35,8574091332712","41,013698630137","41,1922503725782"
Mitte,Stimmenanteile CDU,"44,5194857171444","43,1924617728376","39,8305084745763","28,1833934341779","26,67754066422"
Nordost,Stimmenanteile CDU,"49,9680482015702","49,2133326957104","44,0436023877498","33,5859986442349","34,2492287825525"
Ost,Stimmenanteile CDU,"49,2805417097715","48,4850602830683","41,3338503295851","34,1646983466112","32,6838382490324"
Südost,Stimmenanteile CDU,"49,0924805531547","49,6747144715917","39,9135446685879","32,845269160143","31,3472654513117"
Süd,Stimmenanteile CDU,"49,1773609740046","45,395097666962","43,3987313763092","25,8137602900083","23,407298592856"
Südwest,Stimmenanteile CDU,"49,8137683020807","47,8631978953522","31,2697437697438","28,9887640449438","26,9499843374752"
West,Stimmenanteile CDU,"47,5792714884696","45,4414654688377","31,4872349047683","29,4666450951842","30,9227097971629"
Alt-West,Stimmenanteile CDU,"48,6193827828912","48,0693240901213","29,4705616818211","33,806146572104","29,8347795079044"
Nordwest,Stimmenanteile CDU,"50,3021148036254","51,7206712551233","36,6495726495726","35,4531572801581","36,3431593379689"
Nord,Stimmenanteile CDU,"48,725485227791","48,8283778535364","35,2681213747386","33,7018175795967","32,6823301134686"
Stadt Leipzig,Stimmenanteile CDU,"48,5374249499666","47,6156337059081","32,7218179615947","31,2807486094098","29,9158147925436"
Zentrum,Stimmenanteile DIE LINKE,"24,9502982107356","25,5400254129606","20,3554119547658","19,9306759098787","17,0588235294118"
Zentrum-Ost,Stimmenanteile DIE LINKE,"24,4743481917578","28,3035714285714","23,4567901234568","20,8245981830887","20,4490291262136"
Zentrum-Südost,Stimmenanteile DIE LINKE,"30,7592472420506","34,5741968383478","31,6692667706708","29,6170212765957","27,825571047167"
Zentrum-Süd,Stimmenanteile DIE LINKE,"26,9662921348315","30,7086614173228","27,2465692784418","22,4235104669887","23,6528098537336"
Zentrum-West,Stimmenanteile DIE LINKE,"23,7185319987868","29,202657807309","26,7819862809424","19,5854371512091","20,2880242546741"
Zentrum-Nordwest,Stimmenanteile DIE LINKE,"22,4196855775803","20,5008488964346","17,1389270976616","14,2995402855069","15,3828252269025"
Zentrum-Nord,Stimmenanteile DIE LINKE,"21,8667546174142","25,1640293323041","25,5341144038594","18,7753721244926","19,1847298608864"
Schönefeld-Abtnaundorf,Stimmenanteile DIE LINKE,"19,1809347524294","24,5961002785515","27,5237529691211","23,476222371065","22,1415607985481"
Schönefeld-Ost,Stimmenanteile DIE LINKE,"24,4022273173927","30,1495765002703","30,6037059175134","29,8744373371239","25,9847148736038"
Mockau-Süd,Stimmenanteile DIE LINKE,"19,5502810743285","27,8851786760398","27,0220588235294","25,1008878127522","23,3459357277883"
Mockau-Nord,Stimmenanteile DIE LINKE,"24,2367308595585","29,1318437659901","30,2197802197802","28,0727272727273","25,557461406518"
Thekla,Stimmenanteile DIE LINKE,"22,0154494382022","26,298044504383","28,3870967741935","24,6598639455782","22,8266148615833"
Plaußig-Portitz,Stimmenanteile DIE LINKE,"10,5590062111801","20,2265372168285","20","19,7852760736196","17,395029991431"
Neustadt-Neuschönefeld,Stimmenanteile DIE LINKE,"19,6855775803144","23,3180428134557","22,3756906077348","21,5611613517373","22,8228228228228"
Volkmarsdorf,Stimmenanteile DIE LINKE,"22,0252403846154","27,5237273511648","21,8156228008445","22,209026128266","26,3227513227513"
Anger-Crottendorf,Stimmenanteile DIE LINKE,"19,5170034499754","25,4607935020306","24,0586603250099","22,3300970873786","23,8"
Sellerhausen-Stünz,Stimmenanteile DIE LINKE,"19,8419666374012","26,7096134786918","27,7232580961727","25,1564455569462","23,6046924991113"
Paunsdorf,Stimmenanteile DIE LINKE,"21,849710982659","26,5634580012262","24,2883101150818","28,6382978723404","27,4336283185841"
Heiterblick,Stimmenanteile DIE LINKE,"15,7434402332362","27,5182892515476","25,9453781512605","23,4479220112878","22,5153374233129"
Mölkau,Stimmenanteile DIE LINKE,"0","23,0195712954334","31,2338222605695","21,6812723141837","18,8115202333212"
Engelsdorf,Stimmenanteile DIE LINKE,"0","22,8619813717189","26,8415741675076","19,5463455614674","17,3325138291334"
Baalsdorf,Stimmenanteile DIE LINKE,"0","25,4014598540146","21,8277066356228","15,2522935779817","13,200498132005"
Althen-Kleinpösna,Stimmenanteile DIE LINKE,"0","27,4425287356322","21,6052631578947","18,4964200477327","14,5431145431145"
Reudnitz-Thonberg,Stimmenanteile DIE LINKE,"20,0401472064236","24,4839346616406","18,6915887850467","19,76647206005","23,5330739299611"
Stötteritz,Stimmenanteile DIE LINKE,"20,1255667945588","23,5422740524781","24,0950226244344","19,7275204359673","20,6102685912662"
Probstheida,Stimmenanteile DIE LINKE,"24,3640474844545","27,0313757039421","24,1408498391739","22,9508196721311","23,2742361373067"
Meusdorf,Stimmenanteile DIE LINKE,"20","22,1348314606742","22,6190476190476","22,7272727272727","21,7721518987342"
Liebertwolkwitz,Stimmenanteile DIE LINKE,"0","20,3389830508475","26,2115316590025","18,5819070904645","16,6300768386389"
Holzhausen,Stimmenanteile DIE LINKE,"0","23,2","26,3096623981374","19,3428184281843","17,5418994413408"
Südvorstadt,Stimmenanteile DIE LINKE,"21,5214564369311","24,7124899705804","21,6872603323392","17,9800547516621","23,2907010289451"
Connewitz,Stimmenanteile DIE LINKE,"18,5003915426782","23,3211868818324","23,9318885448916","22,9468272222974","31,189451022605"
Marienbrunn,Stimmenanteile DIE LINKE,"19,1573033707865","23,7851662404092","20,2148227712137","22,901023890785","22,9851825081316"
Lößnig,Stimmenanteile DIE LINKE,"25,1191611058151","29,9980868567056","23,3168666196189","29,002808988764","27,5476839237057"
Dölitz-Dösen,Stimmenanteile DIE LINKE,"20,1807228915663","24,7668997668998","24,9035989717224","21,1318482841662","21,75"
Schleußig,Stimmenanteile DIE LINKE,"21,180457497882","24,1073825503356","29,3545717832023","15,9992817381936","20,4669828529734"
Plagwitz,Stimmenanteile DIE LINKE,"19,6178778573866","23,3730834752981","22,3955431754875","20,4534718941899","24,0128928283642"
Kleinzschocher,Stimmenanteile DIE LINKE,"19,2016933776837","24,7521586184842","18,1396287328491","23,8425925925926","25,952667468913"
Großzschocher,Stimmenanteile DIE LINKE,"20,0103013134175","25,0056268287193","22,4516466283325","26,9828926905132","24,0939402725428"
Knautkleeberg-Knauthain,Stimmenanteile DIE LINKE,"17,7486910994764","24,4378447178617","27,8934790030727","22,2506393861893","19,1130820399113"
Hartmannsdorf-Knautnaundorf,Stimmenanteile DIE LINKE,"0","22,007722007722","25,7187780772686","24,2537313432836","18,5909980430528"
Schönau,Stimmenanteile DIE LINKE,"23,0769230769231","29,2572463768116","25,1594896331738","33,6252189141856","28,9747399702823"
Grünau-Ost,Stimmenanteile DIE LINKE,"23,7428515085782","31,2728839112643","21,5851602023609","35,1043643263757","34,0718105423988"
Grünau-Mitte,Stimmenanteile DIE LINKE,"26,1804637750811","31,068542352589","33,6069779374038","34,9987571464082","32,6679340937896"
Grünau-Siedlung,Stimmenanteile DIE LINKE,"20,898315658141","25,3221010901883","34,0526976160602","23,5232618923157","21,3789107763615"
Lausen-Grünau,Stimmenanteile DIE LINKE,"23,7530331625775","30,1436048852503","35,2515169309062","32,2158438576349","28,974358974359"
Grünau-Nord,Stimmenanteile DIE LINKE,"24,7524752475248","31,5755488592337","24,5743212149103","34,7194186515947","33,1262939958592"
Miltitz,Stimmenanteile DIE LINKE,"0","24,2924528301887","32,9090291921249","22,3333333333333","20,6766917293233"
Lindenau,Stimmenanteile DIE LINKE,"20,9235209235209","24,1331484049931","34,5560407569141","20,3432930705658","23,6514522821577"
Altlindenau,Stimmenanteile DIE LINKE,"18,1867388362652","22,5036818851252","23,5119047619048","22,8353390079249","24,3002544529262"
Neulindenau,Stimmenanteile DIE LINKE,"21,0260115606936","28,5714285714286","23,4173325138291","28,6937901498929","25,5107675317504"
Leutzsch,Stimmenanteile DIE LINKE,"22,424992267244","26,2322015334064","23,8485971413446","24,5033112582781","21,636305528923"
Böhlitz-Ehrenberg,Stimmenanteile DIE LINKE,"0","22,23113964687","32,6149425287356","20,1078960274644","19,0911535358967"
Burghausen-Rückmarsdorf,Stimmenanteile DIE LINKE,"0","0","25,25903108373","20,0088928412628","17,4564796905222"
Möckern,Stimmenanteile DIE LINKE,"19,4676676335096","23,7938786097181","22,8774667278568","25,0444839857651","22,4242424242424"
Wahren,Stimmenanteile DIE LINKE,"19,2510801728277","24,6715328467153","21,4858590122415","22,8894691035683","17,8443649373882"
Lützschena-Stahmeln,Stimmenanteile DIE LINKE,"0","22,4875069405886","25,406542950067","21,4668094218415","18,6279977691021"
Lindenthal,Stimmenanteile DIE LINKE,"0","20,7134637514384","24,5226506926245","19,0611088628086","18,4068406840684"
Gohlis-Süd,Stimmenanteile DIE LINKE,"20,0346545375785","21,528384279476","22,7513227513228","16,8218298555377","16,4466697011076"
Gohlis-Mitte,Stimmenanteile DIE LINKE,"20,5080122741221","22,8145754801651","22,9847494553377","19,5551753635586","18,1528127623845"
Gohlis-Nord,Stimmenanteile DIE LINKE,"28,6596119929453","32,9968595782862","18,7446407134282","29,5285359801489","25,4421346571517"
Eutritzsch,Stimmenanteile DIE LINKE,"18,4556639796351","24,3945789824483","21,3079470198675","21,611909650924","19,8004201680672"
Seehausen,Stimmenanteile DIE LINKE,"0","14,0295358649789","32,8962502875546","18,8950276243094","17,6774193548387"
Wiederitzsch,Stimmenanteile DIE LINKE,"0","21,123595505618","23,81174277726","20,3287671232877","17,1087928464978"
Mitte,Stimmenanteile DIE LINKE,"25,6190904997749","28,759239406421","23,0696798493409","20,8588957055215","21,0593085949889"
Nordost,Stimmenanteile DIE LINKE,"22,2521453350374","27,5931328009182","21,8531014793667","26,3080051765576","23,731975034077"
Ost,Stimmenanteile DIE LINKE,"20,6056616194865","25,4377074960685","24,8287449915988","23,0393530565675","22,0917300591663"
Südost,Stimmenanteile DIE LINKE,"20,577089289276","23,6856055129873","26,0086455331412","20,2087561612061","21,1896645422657"
Süd,Stimmenanteile DIE LINKE,"21,3803882856203","25,4060667426064","21,5370998672371","21,8865644588777","26,0360290706665"
Südwest,Stimmenanteile DIE LINKE,"19,753403544824","24,3145279158141","24,3111618111618","21,2594721714136","22,5435940273572"
West,Stimmenanteile DIE LINKE,"24,393998951782","30,193711398091","31,7213742176595","32,4003667152025","29,8554951610765"
Alt-West,Stimmenanteile DIE LINKE,"20,4746435661433","24,4644714038128","27,6584768169214","22,5374310480693","21,8590276952336"
Nordwest,Stimmenanteile DIE LINKE,"19,4108761329305","23,1768618049648","23,8564102564103","22,6713374651936","19,8805210067574"
Nord,Stimmenanteile DIE LINKE,"21,7807733238737","24,2394165623786","23,4305330860593","20,7717467809382","18,770827181845"
Stadt Leipzig,Stimmenanteile DIE LINKE,"22,0429619746498","25,9771066192568","25,5471494190759","22,9879114038435","22,6424449578547"
Zentrum,Stimmenanteile SPD,"19,7813121272366","15,7560355781449","18,578352180937","12,998266897747","16,4705882352941"
Zentrum-Ost,Stimmenanteile SPD,"18,5870479394449","13,8392857142857","20,8230452674897","18,7281621243885","20,0242718446602"
Zentrum-Südost,Stimmenanteile SPD,"18,234912394549","14,9413564507904","18,6167446697868","16,5106382978723","16,1673094037378"
Zentrum-Süd,Stimmenanteile SPD,"18,8457609805924","16,3576327152654","20,2965914121293","15,6199677938808","17,9368745188607"
Zentrum-West,Stimmenanteile SPD,"18,804974218987","16,3455149501661","17,9540709812109","15,2803614137656","17,5341081354219"
Zentrum-Nordwest,Stimmenanteile SPD,"18,796992481203","15,53480475382","19,0921595598349","14,323735785144","19,0132650686525"
Zentrum-Nord,Stimmenanteile SPD,"18,5026385224274","16,8274797375531","17,3328738800827","16,8132611637348","18,2141701714655"
Schönefeld-Abtnaundorf,Stimmenanteile SPD,"22,3507635354003","16,1559888579387","15,855106888361","13,7307434695244","14,6279491833031"
Schönefeld-Ost,Stimmenanteile SPD,"19,6528005240747","15,3000540637953","18,5096632795378","16,5837479270315","15,1381540270429"
Mockau-Süd,Stimmenanteile SPD,"20,9868831980012","14,2355008787346","18,1372549019608","16,7070217917676","15,406427221172"
Mockau-Nord,Stimmenanteile SPD,"18,7098794426178","13,5084427767355","16,5031397174254","13,9393939393939","13,1503716409377"
Thekla,Stimmenanteile SPD,"18,5393258426966","14,3964935940661","15,7874762808349","13,7329931972789","14,52161243322"
Plaußig-Portitz,Stimmenanteile SPD,"16,6149068322981","12,7831715210356","14,6268656716418","12,9601226993865","12,0822622107969"
Neustadt-Neuschönefeld,Stimmenanteile SPD,"20,8475734791524","17,3547400611621","12,9834254143646","13,4697762970014","16,3020163020163"
Volkmarsdorf,Stimmenanteile SPD,"19,0805288461538","15,4443485763589","13,3708655876144","14,0142517814727","13,9550264550265"
Anger-Crottendorf,Stimmenanteile SPD,"21,2666338097585","17,0259293970634","18,0340864050733","13,5587546032809","15,8333333333333"
Sellerhausen-Stünz,Stimmenanteile SPD,"20,8077260755048","16,3280475718533","13,297350343474","15,9574468085106","16,4237468894419"
Paunsdorf,Stimmenanteile SPD,"18,6622625928984","14,209074187615","16,0205935796487","14,063829787234","14,7400442477876"
Heiterblick,Stimmenanteile SPD,"18,0758017492711","16,3196398424311","19,2489495798319","15,7516675218061","18,2208588957055"
Mölkau,Stimmenanteile SPD,"0","14,5076110593352","15,0819672131148","12,106458941902","13,3430550492162"
Engelsdorf,Stimmenanteile SPD,"0","14,4510302003951","18,3652875882947","11,3693643237188","15,2427781192379"
Baalsdorf,Stimmenanteile SPD,"0","14,3065693430657","16,2398137369034","14,105504587156","15,1930261519303"
Althen-Kleinpösna,Stimmenanteile SPD,"0","12,0689655172414","13,1842105263158","10,8591885441527","11,3256113256113"
Reudnitz-Thonberg,Stimmenanteile SPD,"21,8802275008364","16,5858912224017","14,8364485981308","15,045871559633","17,3852140077821"
Stötteritz,Stimmenanteile SPD,"19,4977328217649","16,1443148688047","11,3122171945701","14,9682107175295","16,8280650465924"
Probstheida,Stimmenanteile SPD,"18,824194460147","16,3716814159292","18,0294565769426","15,591985428051","17,2764994341758"
Meusdorf,Stimmenanteile SPD,"16,8589743589744","14,2134831460674","18,5350529100529","12,3278236914601","14,2616033755274"
Liebertwolkwitz,Stimmenanteile SPD,"0","15,2107779226423","19,5967456667846","13,4963325183374","15,9165751920966"
Holzhausen,Stimmenanteile SPD,"0","12,928","14,8428405122235","13,1436314363144","14,7113594040968"
Südvorstadt,Stimmenanteile SPD,"19,8049414824447","17,0633859320674","16,5317426501917","16,0246382479468","18,5883258005577"
Connewitz,Stimmenanteile SPD,"18,8332028191073","14,6104459482908","14,1486068111455","13,6787985387634","13,791711517761"
Marienbrunn,Stimmenanteile SPD,"18,6797752808989","16,3114521170787","20,4940923737916","14,5392491467577","18,3592338272497"
Lößnig,Stimmenanteile SPD,"18,9545598983159","16,0895351061795","18,0804516584333","16,2219101123596","18,58310626703"
Dölitz-Dösen,Stimmenanteile SPD,"18,855421686747","14,8018648018648","18,6375321336761","14,4491270319085","15"
Schleußig,Stimmenanteile SPD,"20,4179610279582","14,9798657718121","20,6247414149772","13,7906266834261","19,098869025903"
Plagwitz,Stimmenanteile SPD,"21,3920163766633","16,2862010221465","17,9387186629526","14,9976381672178","17,1837228041902"
Kleinzschocher,Stimmenanteile SPD,"22,0441487753251","17,0450911416693","17,5141242937853","16,4351851851852","14,8816686722824"
Großzschocher,Stimmenanteile SPD,"19,9845480298738","16,5428764348413","19,1845269210664","16,0445826853292","16,7294868077704"
Knautkleeberg-Knauthain,Stimmenanteile SPD,"19,1623036649215","12,3037759864234","17,0365312393308","11,8925831202046","12,1507760532151"
Hartmannsdorf-Knautnaundorf,Stimmenanteile SPD,"0","13,8996138996139","18,5534591194969","9,70149253731343","9,00195694716243"
Schönau,Stimmenanteile SPD,"20,4314204314204","15,8967391304348","12,5996810207337","14,9445417396381","16,6419019316493"
Grünau-Ost,Stimmenanteile SPD,"19,6213764543483","15,5072151626104","12,4789207419899","15,8127767235927","17,0359052711994"
Grünau-Mitte,Stimmenanteile SPD,"18,2986903760663","15,7138581263095","17,3422267829656","15,1876708923689","15,8745247148289"
Grünau-Siedlung,Stimmenanteile SPD,"19,463505926388","13,4291377601586","16,3864491844417","12,7548353371668","14,1367323290846"
Lausen-Grünau,Stimmenanteile SPD,"19,1156645996225","14,5483827674138","15,1497357604228","14,2594718714122","14,8717948717949"
Grünau-Nord,Stimmenanteile SPD,"19,6605374823197","14,8299612569953","14,9562816382881","13,5244247073072","14,5962732919255"
Miltitz,Stimmenanteile SPD,"0","16,627358490566","15,224032586558","15,6666666666667","16,2907268170426"
Lindenau,Stimmenanteile SPD,"18,9033189033189","14,7018030513176","14,6142649199418","12,9052765416402","15,72153065929"
Altlindenau,Stimmenanteile SPD,"20,8389715832206","15,5817378497791","16,0714285714286","13,8244790137951","16,030534351145"
Neulindenau,Stimmenanteile SPD,"21,6401734104046","15,7415832575068","14,7510755992624","13,3297644539615","14,9641082274986"
Leutzsch,Stimmenanteile SPD,"20,0742344571605","15,2245345016429","15,4049761778719","13,3955448524985","17,8651326302333"
Böhlitz-Ehrenberg,Stimmenanteile SPD,"0","15,008025682183","17,2413793103448","12,0892594409024","13,444474321054"
Burghausen-Rückmarsdorf,Stimmenanteile SPD,"0","0","17,2780733688043","13,7394397510004","13,9748549323017"
Möckern,Stimmenanteile SPD,"20,6620030711483","16,0297423482621","17,0720513997246","14,1014234875445","14,9242424242424"
Wahren,Stimmenanteile SPD,"20,4512722035526","15,2554744525547","15,1962853524694","12,9242819843342","14,9821109123435"
Lützschena-Stahmeln,Stimmenanteile SPD,"0","12,4375347029428","16,3382437344557","11,9379014989293","11,9353039598438"
Lindenthal,Stimmenanteile SPD,"0","14,7295742232451","14,5263946087608","14,9332254148118","15,0765076507651"
Gohlis-Süd,Stimmenanteile SPD,"18,4968594325319","16,5065502183406","13,8047138047138","15,2969502407705","18,4038840843575"
Gohlis-Mitte,Stimmenanteile SPD,"19,6385952949199","16,6756417160294","15,8678286129267","15,158254918734","18,8916876574307"
Gohlis-Nord,Stimmenanteile SPD,"18,6728395061728","15,7469717362046","18,1958497684788","16,322029225255","16,5684145206329"
Eutritzsch,Stimmenanteile SPD,"20,4497242257107","15,1521884025772","19,0728476821192","14,476386036961","14,9422268907563"
Seehausen,Stimmenanteile SPD,"0","11,9198312236287","17,2532781228433","8,1767955801105","12,7741935483871"
Wiederitzsch,Stimmenanteile SPD,"0","13,1942215088283","17,1248835041939","12,3013698630137","13,3830104321908"
Mitte,Stimmenanteile SPD,"18,6702686477563","15,8156068385713","10,6403013182674","15,7589097550695","17,9647501245979"
Nordost,Stimmenanteile SPD,"19,7735986854117","14,5808426187174","14,7936672722554","14,6915634436433","14,2119233804434"
Ost,Stimmenanteile SPD,"19,9755478228158","15,3555827363271","12,8990564818405","13,5914167901037","15,2586858846034"
Südost,Stimmenanteile SPD,"20,0917492188019","15,536600645752","10,4466858789625","14,4824586836764","16,5505656835137"
Süd,Stimmenanteile SPD,"19,1510365251728","15,9768805636417","13,5713232040124","15,1385846990409","16,9630431421061"
Südwest,Stimmenanteile SPD,"20,6845620344208","15,5860859397837","18,6293436293436","14,5231251633133","16,5396261877415"
West,Stimmenanteile SPD,"19,2020440251572","15,1108927568782","15,2055473006439","14,6038936525913","15,5707278271245"
Alt-West,Stimmenanteile SPD,"20,5739036275041","15,2790294627383","15,8831495453666","13,153906770928","15,3928444074646"
Nordwest,Stimmenanteile SPD,"20,6067472306143","15,1032402753074","16,0410256410256","13,6800503009072","14,4452061502301"
Nord,Stimmenanteile SPD,"19,3432321491917","15,505113709921","17,4486051375133","14,5654784084793","16,8262538490741"
Stadt Leipzig,Stimmenanteile SPD,"19,6434956637759","15,3868731144717","17,0801926785864","14,4822185184441","16,1856083383444"
Zentrum,Stimmenanteile GRÜNE,"6,85884691848907","6,73443456162643","13,4087237479806","13,3448873483536","12,9411764705882"
Zentrum-Ost,Stimmenanteile GRÜNE,"7,65349032800673","6,96428571428571","12,6748971193416","14,4654088050314","12,5606796116505"
Zentrum-Südost,Stimmenanteile GRÜNE,"4,88860047588146","4,2835288118307","9,334373374935","11,6312056737589","11,0946306733907"
Zentrum-Süd,Stimmenanteile GRÜNE,"8,12053115423902","6,57861315722631","15,6485170429394","20,0080515297907","16,8591224018476"
Zentrum-West,Stimmenanteile GRÜNE,"8,82620564149227","7,10963455149502","15,4190277363555","19,4791389848525","16,6750884284992"
Zentrum-Nordwest,Stimmenanteile GRÜNE,"11,0047846889952","12,6910016977929","21,1279229711142","23,7599806436003","21,0612054922039"
Zentrum-Nord,Stimmenanteile GRÜNE,"7,68469656992084","5,21034349671941","13,7146795313577","14,3437077131258","13,8142995794241"
Schönefeld-Abtnaundorf,Stimmenanteile GRÜNE,"6,20083294770939","4,15041782729805","6,62114014251781","7,20026791694575","7,9491833030853"
Schönefeld-Ost,Stimmenanteile GRÜNE,"4,8149361283983","2,07244548567309","4,48296473401076","4,19331911869225","3,17460317460317"
Mockau-Süd,Stimmenanteile GRÜNE,"5,93379138038726","2,5776215582894","5,26960784313725","6,6182405165456","5,765595463138"
Mockau-Nord,Stimmenanteile GRÜNE,"4,24299358071082","2,30257547330718","4,3563579277865","5,33333333333333","4,25957690108634"
Thekla,Stimmenanteile GRÜNE,"5,30196629213483","2,09035738368173","4,32637571157495","4,59183673469388","3,39970859640602"
Plaußig-Portitz,Stimmenanteile GRÜNE,"5,59006211180124","2,75080906148867","8,65671641791045","5,75153374233129","6,85518423307626"
Neustadt-Neuschönefeld,Stimmenanteile GRÜNE,"7,6555023923445","6,03975535168196","5,52486187845304","13,4697762970014","15,2724152724153"
Volkmarsdorf,Stimmenanteile GRÜNE,"8,41346153846154","3,53753235547886","6,26319493314567","9,61995249406176","10,7804232804233"
Anger-Crottendorf,Stimmenanteile GRÜNE,"7,66387382947265","6,46672914714152","9,78993261989695","13,2574489454302","12,6333333333333"
Sellerhausen-Stünz,Stimmenanteile GRÜNE,"5,13608428446005","3,49355797819623","7,21295387634936","6,53942428035044","6,00782083185211"
Paunsdorf,Stimmenanteile GRÜNE,"5,36746490503716","2,46781115879828","10,8116293155663","5,06382978723404","3,06969026548673"
Heiterblick,Stimmenanteile GRÜNE,"7,5801749271137","1,96961170512099","5,82983193277311","5,84915341200616","4,5398773006135"
Mölkau,Stimmenanteile GRÜNE,"0","3,10655483069276","4,22778257118205","6,65368386887374","5,46846518410499"
Engelsdorf,Stimmenanteile GRÜNE,"0","2,76601749929438","5,09586276488396","6,1327359283114","5,10141364474493"
Baalsdorf,Stimmenanteile GRÜNE,"0","9,1970802919708","5,58789289871944","8,02752293577982","9,09090909090909"
Althen-Kleinpösna,Stimmenanteile GRÜNE,"0","2,1551724137931","5,18421052631579","5,13126491646778","3,6036036036036"
Reudnitz-Thonberg,Stimmenanteile GRÜNE,"7,72833723653396","7,16208939149165","11,4485981308411","17,581317764804","16,5291828793774"
Stötteritz,Stimmenanteile GRÜNE,"6,81897453784444","5,466472303207","3,73303167420814","12,7520435967302","12,1871003106157"
Probstheida,Stimmenanteile GRÜNE,"4,52232899943471","3,17779565567176","12,4259353309633","8,16029143897996","6,22406639004149"
Meusdorf,Stimmenanteile GRÜNE,"3,3974358974359","2,19101123595506","10,2678571428571","5,9228650137741","5,82278481012658"
Liebertwolkwitz,Stimmenanteile GRÜNE,"0","2,91177748804867","6,4379200565971","4,88997555012225","4,00658616904501"
Holzhausen,Stimmenanteile GRÜNE,"0","3,776","4,13271245634459","7,38482384823848","6,96461824953445"
Südvorstadt,Stimmenanteile GRÜNE,"8,73862158647594","10,805028082375","4,09032807839796","26,6229956980837","23,2907010289451"
Connewitz,Stimmenanteile GRÜNE,"7,12607674236492","9,12719069928857","6,43962848297214","22,5138682181031","18,1243272335845"
Marienbrunn,Stimmenanteile GRÜNE,"7,41573033707865","5,54134697357204","22,8141783029001","10,4436860068259","9,79400072280448"
Lößnig,Stimmenanteile GRÜNE,"5,37019383539879","3,50105222881194","18,1651376146789","7,32677902621723","6,86648501362398"
Dölitz-Dösen,Stimmenanteile GRÜNE,"5,66265060240964","4,13752913752914","9,76863753213368","10,1745936183022","9,1875"
Schleußig,Stimmenanteile GRÜNE,"8,64162665913584","11,489932885906","5,56474968969797","28,155862811995","25,2827435242612"
Plagwitz,Stimmenanteile GRÜNE,"7,16479017400205","7,39352640545145","8,80222841225627","19,3197921587152","19,0370668815471"
Kleinzschocher,Stimmenanteile GRÜNE,"5,95706078016329","4,189318835945","21,3680387409201","10,3009259259259","11,0709987966306"
Großzschocher,Stimmenanteile GRÜNE,"4,79011073911924","3,10600945307225","12,4150548876111","7,1021254536029","6,08872136851261"
Knautkleeberg-Knauthain,Stimmenanteile GRÜNE,"4,71204188481675","4,92151039456937","7,16968248548993","10,7416879795396","10,19955654102"
Hartmannsdorf-Knautnaundorf,Stimmenanteile GRÜNE,"0","1,15830115830116","6,44654088050314","4,1044776119403","5,47945205479452"
Schönau,Stimmenanteile GRÜNE,"5,9015059015059","2,80797101449275","8,49282296650718","5,48744892002335","3,41753343239227"
Grünau-Ost,Stimmenanteile GRÜNE,"5,54131335042398","1,9384018953263","3,20404721753794","4,83870967741936","3,20855614973262"
Grünau-Mitte,Stimmenanteile GRÜNE,"5,27454043013337","2,4992517210416","4,41251924063622","4,72284364901815","2,97845373891001"
Grünau-Siedlung,Stimmenanteile GRÜNE,"4,24204616344354","3,71655104063429","3,5633626097867","7,78881338212232","6,14136732329085"
Lausen-Grünau,Stimmenanteile GRÜNE,"5,3788083041251","2,40236209904711","4,09082012135447","5,32721010332951","3,53276353276353"
Grünau-Nord,Stimmenanteile GRÜNE,"5,23338048090523","2,51829530779165","5,98251265531523","4,84457004440856","3,1055900621118"
Miltitz,Stimmenanteile GRÜNE,"0","3,06603773584906","5,02376103190767","7,22222222222222","6,14035087719298"
Lindenau,Stimmenanteile GRÜNE,"5,55555555555556","6,51872399445215","4,39592430858806","19,7711379529561","24,7579529737206"
Altlindenau,Stimmenanteile GRÜNE,"7,1447902571042","6,74521354933726","7,63888888888889","14,4702083944819","16,4631043256997"
Neulindenau,Stimmenanteile GRÜNE,"5,34682080924855","3,13921747042766","12,7842655193608","6,20985010706638","6,51573716178907"
Leutzsch,Stimmenanteile GRÜNE,"6,68110114444788","5,09309967141292","11,2493382742192","8,66947621914509","8,37328219878555"
Böhlitz-Ehrenberg,Stimmenanteile GRÜNE,"0","3,15676832530765","5,41187739463602","7,9941147621383","7,01801559559021"
Burghausen-Rückmarsdorf,Stimmenanteile GRÜNE,"0","0","8,31699803976477","5,95820364606492","4,25531914893617"
Möckern,Stimmenanteile GRÜNE,"6,466473298072","3,9771744769151","6,17255621844883","7,7846975088968","6,76767676767677"
Wahren,Stimmenanteile GRÜNE,"6,43302928468555","4,45255474452555","4,6855213170114","8,52915578764143","8,09481216457961"
Lützschena-Stahmeln,Stimmenanteile GRÜNE,"0","4,16435313714603","7,19341878706715","9,47537473233405","8,03123257110987"
Lindenthal,Stimmenanteile GRÜNE,"0","2,33985423858842","7,78734556345938","6,23229461756374","4,86048604860486"
Gohlis-Süd,Stimmenanteile GRÜNE,"9,29174788823912","9,03930131004367","8,03270803270803","16,9341894060995","15,5211652253072"
Gohlis-Mitte,Stimmenanteile GRÜNE,"7,55199454483464","6,73128702207862","4,06681190994916","13,3105218135158","12,6616288832914"
Gohlis-Nord,Stimmenanteile GRÜNE,"3,85802469135802","2,28802153432032","14,6801577773967","7,00303280948442","5,8330747750543"
Eutritzsch,Stimmenanteile GRÜNE,"6,63979635129402","3,73250388802488","11,5066225165563","8,59856262833676","8,32457983193277"
Seehausen,Stimmenanteile GRÜNE,"0","2,9535864978903","4,87692661605705","8,50828729281768","4,51612903225806"
Wiederitzsch,Stimmenanteile GRÜNE,"0","3,08186195826645","6,547064305685","7,42465753424658","7,15350223546945"
Mitte,Stimmenanteile GRÜNE,"7,75426484566512","6,80471703436213","7,15630885122411","17,9225401582916","15,9258755833447"
Nordost,Stimmenanteile GRÜNE,"5,08946503560343","2,57759074171489","6,30677394238256","5,40457262587046","4,92861754788722"
Ost,Stimmenanteile GRÜNE,"6,58327847267939","3,70435086493098","4,67881607858343","7,76252051723448","7,42470750478224"
Südost,Stimmenanteile GRÜNE,"6,55541519845755","4,82868295503831","3,7463976945245","11,5202474147096","10,9826589595376"
Süd,Stimmenanteile GRÜNE,"7,12405396512011","7,52225456693246","5,76781236170527","19,5415754097123","17,1601979279419"
Südwest,Stimmenanteile GRÜNE,"6,35114307731826","6,05670856474715","10,7844857844858","16,7285079696891","16,0540879189725"
West,Stimmenanteile GRÜNE,"5,33280922431866","2,51263335204941","4,93043360799676","5,40904923690881","3,73193689513456"
Alt-West,Stimmenanteile GRÜNE,"6,36166756903086","4,82495667244367","8,19629844586316","10,1109292598654","11,3693094021158"
Nordwest,Stimmenanteile GRÜNE,"6,45770392749245","3,77387673033795","6,59145299145299","7,87748136171742","6,86514543139751"
Nord,Stimmenanteile GRÜNE,"6,8920083109512","5,10507918698485","9,16623919820069","11,4685546308947","10,7858438435905"
Stadt Leipzig,Stimmenanteile GRÜNE,"6,39252835223482","4,67153916846699","9,24307503097951","11,9083716540493","11,2573978542267"
Zentrum,Stimmenanteile FDP,"1,29224652087475","1,90597204574333","8,23909531502423","9,53206239168111","6,47058823529412"
Zentrum-Ost,Stimmenanteile FDP,"1,17746005046257","0,535714285714286","5,76131687242798","8,66526904262753","4,67233009708738"
Zentrum-Südost,Stimmenanteile FDP,"1,01665585117889","1,19836817950025","4,7321892875715","7,5177304964539","3,47078018392169"
Zentrum-Süd,Stimmenanteile FDP,"0,944841675178754","0,990601981203962","4,09473218238159","7,40740740740741","3,71439568899153"
Zentrum-West,Stimmenanteile FDP,"0,909918107370337","1,22923588039867","5,12973456606024","8,98219505713526","5,1288529560384"
Zentrum-Nordwest,Stimmenanteile FDP,"0,956937799043062","1,69779286926995","6,62998624484182","10,9121703363174","4,58459390272283"
Zentrum-Nord,Stimmenanteile FDP,"1,38522427440633","1,35082979544577","5,03101309441764","9,53991880920162","5,33807829181495"
Schönefeld-Abtnaundorf,Stimmenanteile FDP,"0,971772327626099","0,807799442896936","4,51306413301663","9,31011386470194","2,86751361161524"
Schönefeld-Ost,Stimmenanteile FDP,"0,867998689813298","0,828978194269238","3,28750747160789","6,04122245913291","2,29276895943563"
Mockau-Süd,Stimmenanteile FDP,"0,749531542785759","0,878734622144112","3,37009803921569","7,34463276836158","3,87523629489603"
Mockau-Nord,Stimmenanteile FDP,"0,986378581493659","0,852805730854511","4,47409733124019","7,75757575757576","2,80160091480846"
Thekla,Stimmenanteile FDP,"0,807584269662921","0,910316925151719","3,90891840607211","8,4608843537415","2,86546867411365"
Plaußig-Portitz,Stimmenanteile FDP,"2,01863354037267","1,29449838187702","5,67164179104478","11,6564417177914","4,54155955441303"
Neustadt-Neuschönefeld,Stimmenanteile FDP,"1,12781954887218","1,29969418960245","5,70902394106814","6,56830080913851","2,7027027027027"
Volkmarsdorf,Stimmenanteile FDP,"1,08173076923077","0,647109577221743","5,70021111893033","8,4916864608076","1,98412698412698"
Anger-Crottendorf,Stimmenanteile FDP,"1,37999014292755","0,687285223367698","5,19223147047166","8,10177435554068","2,73333333333333"
Sellerhausen-Stünz,Stimmenanteile FDP,"0,570676031606673","0,76808721506442","4,66143277723258","7,1026282853567","3,12833274084607"
Paunsdorf,Stimmenanteile FDP,"0,908340214698596","0,904353157572042","4,7244094488189","8,31914893617021","3,18030973451327"
Heiterblick,Stimmenanteile FDP,"1,45772594752187","0,56274620146314","3,78151260504202","9,9025141097999","2,69938650306748"
Mölkau,Stimmenanteile FDP,"0","1,55327741534638","4,14150129421915","9,25024342745862","4,010207801677"
Engelsdorf,Stimmenanteile FDP,"0","1,46768275472763","4,79313824419778","11,5373844861383","3,93362015980332"
Baalsdorf,Stimmenanteile FDP,"0","2,91970802919708","5,12223515715949","9,1743119266055","4,60772104607721"
Althen-Kleinpösna,Stimmenanteile FDP,"0","1,4367816091954","5,73684210526316","8,83054892601432","3,6036036036036"
Reudnitz-Thonberg,Stimmenanteile FDP,"1,25460020073603","1,02315562735595","5,95794392523364","7,93994995829858","2,52140077821012"
Stötteritz,Stimmenanteile FDP,"1,37774677363097","1,16618075801749","7,12669683257919","9,00999091734787","3,17924355929107"
Probstheida,Stimmenanteile FDP,"1,35669869983041","1,40788415124698","5,332656170645","9,2896174863388","4,5643153526971"
Meusdorf,Stimmenanteile FDP,"0,705128205128205","1,29213483146067","5,40674603174603","10,3994490358127","4,89451476793249"
Liebertwolkwitz,Stimmenanteile FDP,"0","1,08648413733159","4,8461266360099","11,2469437652812","4,11635565312843"
Holzhausen,Stimmenanteile FDP,"0","1,056","5,35506402793946","10,7384823848238","3,68715083798883"
Südvorstadt,Stimmenanteile FDP,"1,00130039011704","1,16341267718641","4,68683425649766","6,93195150567071","2,4810077892105"
Connewitz,Stimmenanteile FDP,"1,19420516836335","1,57903869512407","5,85139318885449","6,02083615207685","1,97793326157158"
Marienbrunn,Stimmenanteile FDP,"1,40449438202247","1,07985223074737","4,41460794844254","7,98634812286689","3,83086375135526"
Lößnig,Stimmenanteile FDP,"0,921512551636479","0,860914482494739","4,10726887791108","6,437265917603","1,96185286103542"
Dölitz-Dösen,Stimmenanteile FDP,"1,26506024096386","1,45687645687646","4,88431876606684","9,81336544250452","3,625"
Schleußig,Stimmenanteile FDP,"1,44027110985597","1,04697986577181","3,74431112949938","8,67301131262345","2,91864283108355"
Plagwitz,Stimmenanteile FDP,"0,989423404981235","0,954003407155026","5,62674094707521","7,84128483703354","2,75987107171636"
Kleinzschocher,Stimmenanteile FDP,"1,33051103719383","0,927406459865686","5,30669895076675","7,83179012345679","2,68752507019655"
Großzschocher,Stimmenanteile FDP,"1,15889775946433","0,765248705829395","4,96602195504443","7,05028512182478","2,5804581037982"
Knautkleeberg-Knauthain,Stimmenanteile FDP,"0,628272251308901","0,890963088672041","3,89211334926596","9,20716112531969","3,50332594235033"
Hartmannsdorf-Knautnaundorf,Stimmenanteile FDP,"0","0,579150579150579","3,72866127583109","10,8208955223881","3,91389432485323"
Schönau,Stimmenanteile FDP,"0,854700854700855","0,452898550724638","4,98405103668262","8,52305896088733","3,41753343239227"
Grünau-Ost,Stimmenanteile FDP,"1,02543876947348","0,883049752315313","4,89038785834739","7,08412397216951","2,13903743315508"
Grünau-Mitte,Stimmenanteile FDP,"1,08134086266971","0,927865908410656","4,87429451000513","6,76112353964703","2,31305449936629"
Grünau-Siedlung,Stimmenanteile FDP,"1,18527760449158","1,13974231912785","3,91468005018821","8,88656560376372","4,57705677867903"
Lausen-Grünau,Stimmenanteile FDP,"0,984092747371259","0,778419004160515","3,44490115482482","8,86337543053961","2,62108262108262"
Grünau-Nord,Stimmenanteile FDP,"0,884016973125884","0,753336203185536","4,92406810860561","6,66128381106177","2,53623188405797"
Miltitz,Stimmenanteile FDP,"0","0,707547169811321","3,95451459606246","9,22222222222222","2,88220551378446"
Lindenau,Stimmenanteile FDP,"1,22655122655123","1,04022191400832","3,52256186317322","8,20089001907184","2,95066851083449"
Altlindenau,Stimmenanteile FDP,"1,29905277401894","1,14874815905744","5,45634920634921","8,59994129732903","2,74809160305344"
Neulindenau,Stimmenanteile FDP,"1,15606936416185","0,86442220200182","4,85556238475722","8,29764453961456","2,15350635008283"
Leutzsch,Stimmenanteile FDP,"1,48468914321064","1,04052573932092","5,5849655902594","9,6628537025888","3,99488654522212"
Böhlitz-Ehrenberg,Stimmenanteile FDP,"0","0,615302300695559","3,68773946360153","9,048553212359","3,01156224791611"
Burghausen-Rückmarsdorf,Stimmenanteile FDP,"0","0","5,06860823298796","11,6940862605602","4,59381044487427"
Möckern,Stimmenanteile FDP,"1,10902576352158","1,02023171364344","5,00229463056448","8,25177935943061","2,72727272727273"
Wahren,Stimmenanteile FDP,"1,34421507441191","0,72992700729927","7,13381173490924","10,1392515230635","2,23613595706619"
Lützschena-Stahmeln,Stimmenanteile FDP,"0","0,721821210438645","4,07499521714176","8,51177730192719","3,23480200780814"
Lindenthal,Stimmenanteile FDP,"0","0,958956655159187","5,09172594533882","10,1983002832861","4,23042304230423"
Gohlis-Süd,Stimmenanteile FDP,"1,01797704136885","1,41921397379913","5,67580567580568","11,3643659711075","4,02063419814899"
Gohlis-Mitte,Stimmenanteile FDP,"0,954653937947494","1,40010770059235","5,48293391430646","9,27288280581694","3,89588581024349"
Gohlis-Nord,Stimmenanteile FDP,"1,05820105820106","0,717810677433827","5,65940661979077","6,45161290322581","3,07167235494881"
Eutritzsch,Stimmenanteile FDP,"1,08188375053034","0,799822261719618","5,16556291390728","8,75256673511294","2,75735294117647"
Seehausen,Stimmenanteile FDP,"0","0,316455696202532","3,15159880377272","12,4861878453039","4"
Wiederitzsch,Stimmenanteile FDP,"0","1,05939004815409","4,49673811742777","9,3972602739726","3,84500745156483"
Mitte,Stimmenanteile FDP,"1,05558056931312","1,2356824465384","7,90960451977401","8,81843300707161","4,46286982918762"
Nordost,Stimmenanteile FDP,"0,940295782362607","0,875137487446798","4,64573059953283","7,9805262833549","2,92703924241337"
Ost,Stimmenanteile FDP,"0,992194112668109","1,05888520006989","6,08763086467623","8,74734777212859","3,22523243916544"
Südost,Stimmenanteile FDP,"1,25656538793963","1,14211363307792","5,54755043227666","9,30221320189427","3,40398201669878"
Süd,Stimmenanteile FDP,"1,09822309970385","1,20659832088765","5,05974332497418","6,89524960350427","2,47796505334777"
Südwest,Stimmenanteile FDP,"1,16234266632417","0,90032154340836","4,45331695331695","8,17350405016985","2,88190456301556"
West,Stimmenanteile FDP,"0,999082809224319","0,824677147669848","4,14696744563015","7,79809092379874","2,77078085642317"
Alt-West,Stimmenanteile FDP,"1,30842808157372","0,92894280762565","4,66885922486619","9,27441352973268","3,22714846071556"
Nordwest,Stimmenanteile FDP,"1,17069486404834","0,904802412806434","5,03247863247863","9,11703943231833","3,03594163157379"
Nord,Stimmenanteile FDP,"1,02366594030305","1,06589565442541","4,89681568875034","9,44396141266095","3,63183869743114"
Stadt Leipzig,Stimmenanteile FDP,"1,07271514342895","1,0176439737674","4,7163394795442","8,509207012189","3,23448428648289"
Zentrum,Stimmenanteile Sonstige,"2,28628230616302","4,44726810673443","3,06946688206785","7,97227036395147","6,27450980392157"
Zentrum-Ost,Stimmenanteile Sonstige,"1,85029436501262","4,19642857142857","4,03292181069959","6,70859538784067","7,70631067961165"
Zentrum-Südost,Stimmenanteile Sonstige,"2,6822409690677","4,15604283528812","4,47217888715549","7,46099290780142","6,49658854939187"
Zentrum-Süd,Stimmenanteile Sonstige,"2,09397344228805","3,93700787401575","3,96193005754759","6,72302737520129","7,04387990762125"
Zentrum-West,Stimmenanteile Sonstige,"2,51744009705793","3,421926910299","3,6385326573218","6,35131543980866","6,54370894391107"
Zentrum-Nordwest,Stimmenanteile Sonstige,"2,49487354750513","2,97113752122241","2,58596973865199","5,56496491652553","5,67838026530137"
Zentrum-Nord,Stimmenanteile Sonstige,"2,27572559366755","3,31918178309533","3,8249483115093","6,35994587280108","6,85862180524102"
Schönefeld-Abtnaundorf,Stimmenanteile Sonstige,"2,5913928736696","4,67966573816156","7,57125890736342","9,44407233757535","7,9491833030853"
Schönefeld-Ost,Stimmenanteile Sonstige,"1,67048804454635","3,13570012614886","4,98107192667862","5,37787254205165","3,0570252792475"
Mockau-Süd,Stimmenanteile Sonstige,"1,99875078076202","4,04217926186292","6,18872549019608","7,42534301856336","5,5765595463138"
Mockau-Nord,Stimmenanteile Sonstige,"1,87881634570221","4,38342145659219","5,69073783359498","5,79393939393939","3,71640937678674"
Thekla,Stimmenanteile Sonstige,"1,86095505617978","3,94470667565745","4,89563567362429","5,73979591836735","3,54541039339485"
Plaußig-Portitz,Stimmenanteile Sonstige,"2,17391304347826","3,4789644012945","5,37313432835821","6,13496932515337","2,91345329905741"
Neustadt-Neuschönefeld,Stimmenanteile Sonstige,"2,49487354750513","4,70183486238532","5,15653775322284","11,42313184198","12,8271128271128"
Volkmarsdorf,Stimmenanteile Sonstige,"2,85456730769231","5,04745470232959","5,20760028149191","9,97624703087886","13,7566137566138"
Anger-Crottendorf,Stimmenanteile Sonstige,"2,66140956136028","3,4989065916901","5,94530321046373","8,83829929695347","8,53333333333333"
Sellerhausen-Stünz,Stimmenanteile Sonstige,"2,39244951712028","4,26164519326065","6,18253189401374","7,19649561952441","5,1190899395663"
Paunsdorf,Stimmenanteile Sonstige,"2,46077621800165","5,16554261189454","5,17867958812841","6,61702127659574","4,5353982300885"
Heiterblick,Stimmenanteile Sonstige,"3,2069970845481","3,77039954980304","5,3046218487395","5,28476141611083","4,17177914110429"
Mölkau,Stimmenanteile Sonstige,"0","4,84622553588071","6,21225194132873","4,1544952937358","3,3904484141451"
Engelsdorf,Stimmenanteile Sonstige,"0","5,70138300874965","4,18768920282543","6,38476617194063","4,4560540872772"
Baalsdorf,Stimmenanteile Sonstige,"0","2,91970802919708","4,22002328288708","5,04587155963303","1,74346201743462"
Althen-Kleinpösna,Stimmenanteile Sonstige,"0","5,60344827586207","5,55263157894737","6,92124105011933","5,01930501930502"
Reudnitz-Thonberg,Stimmenanteile Sonstige,"2,55938440950151","4,73882606354335","3,6214953271028","10,1918265221018","10,1634241245136"
Stötteritz,Stimmenanteile Sonstige,"2,37181723055459","3,24344023323615","5,65610859728507","6,7574931880109","6,87008953042207"
Probstheida,Stimmenanteile Sonstige,"1,86546071226682","3,58004827031376","5,90824445573049","5,17304189435337","3,5458317615994"
Meusdorf,Stimmenanteile Sonstige,"2,75641025641026","3,65168539325843","5,0760582010582","6,61157024793388","4,13502109704641"
Liebertwolkwitz,Stimmenanteile Sonstige,"0","4,47631464580617","4,17403608065087","6,65036674816626","4,77497255762898"
Holzhausen,Stimmenanteile Sonstige,"0","4,448","5,41327124563446","5,48780487804878","3,09124767225326"
Südvorstadt,Stimmenanteile Sonstige,"2,06762028608583","3,23615940090933","4,64422667234768","9,20023464998045","8,12578132512742"
Connewitz,Stimmenanteile Sonstige,"2,15348472983555","3,59187922956793","3,06501547987616","9,72804762549046","10,1184068891281"
Marienbrunn,Stimmenanteile Sonstige,"1,74157303370787","3,29639102017619","4,28571428571429","5,63139931740614","4,15612576797976"
Lößnig,Stimmenanteile Sonstige,"2,17667619955513","3,86454945475416","5,17995765702188","6,36704119850187","4,74114441416894"
Dölitz-Dösen,Stimmenanteile Sonstige,"2,10843373493976","3,78787878787879","4,04884318766067","7,76640577965081","5,9375"
Schleußig,Stimmenanteile Sonstige,"2,25924879977408","3,46308724832215","4,71659081505999","7,16466151912372","6,96825975921197"
Plagwitz,Stimmenanteile Sonstige,"2,11531900375299","4,39522998296423","4,95821727019499","9,21114785073217","9,18614020950846"
Kleinzschocher,Stimmenanteile Sonstige,"2,17719987904445","4,5730732331308","4,23728813559322","8,44907407407407","7,86201363818692"
Großzschocher,Stimmenanteile Sonstige,"2,21478238475406","3,60117038037362","5,95922634605332","5,10627268014515","3,27631197448536"
Knautkleeberg-Knauthain,Stimmenanteile Sonstige,"2,5130890052356","4,4548154433602","6,41857289177194","6,99062233589088","4,07982261640798"
Hartmannsdorf-Knautnaundorf,Stimmenanteile Sonstige,"0","5,5984555984556","5,34591194968553","6,71641791044776","3,71819960861057"
Schönau,Stimmenanteile Sonstige,"2,52340252340252","4,84601449275362","5,22328548644338","6,30472854640981","4,75482912332838"
Grünau-Ost,Stimmenanteile Sonstige,"2,16919739696312","4,04910618134827","4,89038785834739","4,90196078431373","3,59052711993888"
Grünau-Mitte,Stimmenanteile Sonstige,"2,17469662381353","4,11553427117629","5,43868650590046","6,46283867760378","3,67553865652725"
Grünau-Siedlung,Stimmenanteile Sonstige,"2,4329382407985","3,5183349851338","6,07277289836888","4,18191322530058","2,72305909617613"
Lausen-Grünau,Stimmenanteile Sonstige,"2,91183607441359","4,6839350422762","6,08729692699158","7,16417910447761","4,27350427350427"
Grünau-Nord,Stimmenanteile Sonstige,"2,70509193776521","5,27335342229875","4,97008743672342","6,82276947920872","4,39958592132505"
Miltitz,Stimmenanteile Sonstige,"0","3,30188679245283","6,3306177868296","5,66666666666667","2,88220551378446"
Lindenau,Stimmenanteile Sonstige,"2,74170274170274","5,20110957004161","6,92867540029112","10,2987921169739","10,9727985246657"
Altlindenau,Stimmenanteile Sonstige,"3,43707713125846","6,12665684830633","7,34126984126984","9,30437334898738","10,4834605597964"
Neulindenau,Stimmenanteile Sonstige,"2,23988439306358","5,27752502274795","6,14628149969269","7,01284796573876","6,4053009387079"
Leutzsch,Stimmenanteile Sonstige,"2,10330961954841","3,99780941949617","7,46426680783483","6,59241420830825","5,30520933205497"
Böhlitz-Ehrenberg,Stimmenanteile Sonstige,"0","4,73515248796148","6,13026819923372","5,05149583128985","4,11400914224254"
Burghausen-Rückmarsdorf,Stimmenanteile Sonstige,"0","0","5,1526183141977","5,29124055135616","3,62669245647969"
Möckern,Stimmenanteile Sonstige,"1,96212250469203","4,51322842815148","5,02524093620927","7,31761565836299","5,35353535353535"
Wahren,Stimmenanteile Sonstige,"2,30436869899184","4,05109489051095","4,2634022794428","7,52828546562228","5,54561717352415"
Lützschena-Stahmeln,Stimmenanteile Sonstige,"0","4,60855080510827","5,14635546202411","6,10278372591006","3,73675404350251"
Lindenthal,Stimmenanteile Sonstige,"0","3,87418488684311","6,32721827031074","5,94900849858357","3,87038703870387"
Gohlis-Süd,Stimmenanteile Sonstige,"2,59909031838856","3,97379912663755","4,81000481000481","6,26003210272873","6,09922621756941"
Gohlis-Mitte,Stimmenanteile Sonstige,"2,50596658711217","4,36187399030695","4,53885257806826","7,54491017964072","6,09571788413098"
Gohlis-Nord,Stimmenanteile Sonstige,"1,78571428571429","4,28443248093315","3,68718916137884","5,90019299696719","4,2506981073534"
Eutritzsch,Stimmenanteile Sonstige,"1,97284683920238","5,19884470117752","4,70198675496689","7,90554414784394","5,59348739495798"
Seehausen,Stimmenanteile Sonstige,"0","3,48101265822785","4,62387853692201","7,51381215469613","4,12903225806452"
Wiederitzsch,Stimmenanteile Sonstige,"0","4,1091492776886","5,91798695246971","6,24657534246575","3,725782414307"
Mitte,Stimmenanteile Sonstige,"2,38130972034619","3,71833211081645","5,36723163841808","6,53772303657566","6,61048434597436"
Nordost,Stimmenanteile Sonstige,"1,97644696001461","3,95963846779207","4,38619257721256","6,50150982929685","4,44077767415166"
Ost,Stimmenanteile Sonstige,"2,56277626257876","4,70033199370959","4,85976476670544","7,10196565114696","6,3614929489746"
Südost,Stimmenanteile Sonstige,"2,42670035237019","4,03835959712785","5,47550432276657","7,34029187204021","6,63010720814189"
Süd,Stimmenanteile Sonstige,"2,06893715037841","3,51010420621862","4,13040271426464","8,40570953855449","7,65811040668007"
Südwest,Stimmenanteile Sonstige,"2,23478037503211","4,06313943291435","5,18164268164268","7,34256597857329","6,56781873237966"
West,Stimmenanteile Sonstige,"2,49279350104822","4,43220101066816","5,85348282227926","6,12090815941326","3,83799549250961"
Alt-West,Stimmenanteile Sonstige,"2,66197437285689","5,0051993067591","6,48739279035274","6,9952112505304","6,89409247593011"
Nordwest,Stimmenanteile Sonstige,"2,05186304128902","4,29974479931947","5,18290598290598","6,85349860774275","4,78895308980511"
Nord,Stimmenanteile Sonstige,"2,23483504788932","4,36283605920684","4,65217219745097","6,82730923694779","5,36550385961952"
Stadt Leipzig,Stimmenanteile Sonstige,"2,31087391594396","4,20962984704065","5,12023777357471","7,06640695596297","6,11292211285882"
Zentrum,Stimmenanteile NPD,"","0,254129606099111","4,36187399030695","3,63951473136915","3,72549019607843"
Zentrum-Ost,Stimmenanteile NPD,"","0,267857142857143","2,13991769547325","1,74703004891684","1,45631067961165"
Zentrum-Südost,Stimmenanteile NPD,"","0,790413054563998","4,44617784711388","3,14893617021277","2,81815485019282"
Zentrum-Süd,Stimmenanteile NPD,"","0,533401066802134","2,21336874723329","1,46940418679549","1,11624326404927"
Zentrum-West,Stimmenanteile NPD,"","0,465116279069767","3,1613480465255","2,01966516077598","1,56644770085902"
Zentrum-Nordwest,Stimmenanteile NPD,"","0,297113752122241","2,11829436038514","1,13718848294217","0,837793809634629"
Zentrum-Nord,Stimmenanteile NPD,"","0,231570822076418","3,13576843556168","1,92828146143437","1,77935943060498"
Schönefeld-Abtnaundorf,Stimmenanteile NPD,"","1,5041782729805","6,94774346793349","6,79839249832552","6,89655172413793"
Schönefeld-Ost,Stimmenanteile NPD,"","1,40565867723914","5,45925483163977","4,92774224117508","5,52616108171664"
Mockau-Süd,Stimmenanteile NPD,"","0,585823081429408","6,98529411764706","5,64971751412429","5,4820415879017"
Mockau-Nord,Stimmenanteile NPD,"","0,921030189322872","5,92621664050235","5,6969696969697","5,17438536306461"
Thekla,Stimmenanteile NPD,"","1,38233310856372","5,84440227703985","5,69727891156463","4,6138902379796"
Plaußig-Portitz,Stimmenanteile NPD,"","1,13268608414239","4,17910447761194","3,60429447852761","6,16966580976864"
Neustadt-Neuschönefeld,Stimmenanteile NPD,"","1,33792048929664","4,51197053406998","5,99714421703951","3,43200343200343"
Volkmarsdorf,Stimmenanteile NPD,"","1,85504745470233","4,43349753694581","10,5106888361045","7,20899470899471"
Anger-Crottendorf,Stimmenanteile NPD,"","1,53077163386442","10,0277447483155","5,69132909273519","3,96666666666667"
Sellerhausen-Stünz,Stimmenanteile NPD,"","1,26362735381566","14,5240431795878","5,06883604505632","5,58123000355492"
Paunsdorf,Stimmenanteile NPD,"","1,48681790312692","7,81344639612356","6,93617021276596","6,49889380530973"
Heiterblick,Stimmenanteile NPD,"","1,01294316263365","5,61974789915966","4,61775269368907","5,39877300613497"
Mölkau,Stimmenanteile NPD,"","0,683442062752408","7,12683347713546","3,95975332684193","3,3539919795844"
Engelsdorf,Stimmenanteile NPD,"","0,931414055884843","4,79313824419778","3,83646037524503","3,99508297480025"
Baalsdorf,Stimmenanteile NPD,"","0,437956204379562","3,89988358556461","4,12844036697248","2,4906600249066"
Althen-Kleinpösna,Stimmenanteile NPD,"","1,29310344827586","5,10526315789474","6,08591885441527","6,56370656370656"
Reudnitz-Thonberg,Stimmenanteile NPD,"","1,14880631843475","3,6214953271028","4,07005838198499","2,59922178988327"
Stötteritz,Stimmenanteile NPD,"","1,20262390670554","6,56108597285068","3,905540417802","2,90517083866253"
Probstheida,Stimmenanteile NPD,"","0,884955752212389","7,02556289148468","3,89799635701275","2,4141833270464"
Meusdorf,Stimmenanteile NPD,"","1,51685393258427","5,0760582010582","7,36914600550964","3,88185654008439"
Liebertwolkwitz,Stimmenanteile NPD,"","0,999565406345067","4,38627520339583","4,7921760391198","5,48847420417124"
Holzhausen,Stimmenanteile NPD,"","0,8","7,27590221187427","4,03116531165312","3,24022346368715"
Südvorstadt,Stimmenanteile NPD,"","1,00294196309174","6,17809970174691","1,55455612045366","0,836618905664006"
Connewitz,Stimmenanteile NPD,"","0,832899531494014","4,89164086687306","1,70477607901502","1,1302475780409"
Marienbrunn,Stimmenanteile NPD,"","0,795680591077011","2,94307196562836","2,62798634812287","2,49367546078786"
Lößnig,Stimmenanteile NPD,"","1,26267457432562","3,34509527170078","4,26029962546817","3,84196185286104"
Dölitz-Dösen,Stimmenanteile NPD,"","0,932400932400932","3,59897172236504","4,21432871763998","3,1875"
Schleußig,Stimmenanteile NPD,"","0,590604026845638","6,14398014067025","0,987609983839109","0,711419190076614"
Plagwitz,Stimmenanteile NPD,"","1,36286201022147","4,28969359331476","2,83419933868682","1,67203867848509"
Kleinzschocher,Stimmenanteile NPD,"","1,7268947873361","3,00645682001614","5,05401234567901","3,89089450461292"
Großzschocher,Stimmenanteile NPD,"","1,2829169480081","4,7569262937794","4,12130637636081","3,76920846622209"
Knautkleeberg-Knauthain,Stimmenanteile NPD,"","1,23037759864234","8,84260839877091","3,70843989769821","3,14855875831486"
Hartmannsdorf-Knautnaundorf,Stimmenanteile NPD,"","1,15830115830116","5,84007187780773","3,54477611940299","3,32681017612524"
Schönau,Stimmenanteile NPD,"","2,17391304347826","6,41945773524721","4,37828371278459","4,75482912332838"
Grünau-Ost,Stimmenanteile NPD,"","1,27073013138057","8,60033726812816","3,32068311195446","3,81970970206264"
Grünau-Mitte,Stimmenanteile NPD,"","1,87069739598922","7,18317085684967","3,95227442207308","5,06970849176172"
Grünau-Siedlung,Stimmenanteile NPD,"","1,09018830525273","5,54579673776662","2,35232618923157","2,43337195828505"
Lausen-Grünau,Stimmenanteile NPD,"","1,27499664474567","7,28126834997064","5,39609644087256","5,35612535612536"
Grünau-Nord,Stimmenanteile NPD,"","1,44210073181231","4,00368154624942","5,40976988292289","4,91718426501035"
Miltitz,Stimmenanteile NPD,"","0,825471698113208","7,56958587915818","2,88888888888889","3,1328320802005"
Lindenau,Stimmenanteile NPD,"","2,1497919556172","8,50072780203785","4,64081373172282","2,12079299216229"
Altlindenau,Stimmenanteile NPD,"","1,9440353460972","5,15873015873016","4,43205165835045","3,23155216284987"
Neulindenau,Stimmenanteile NPD,"","1,77434030937216","8,60479409956976","4,38972162740899","5,35615681943678"
Leutzsch,Stimmenanteile NPD,"","1,39649507119387","8,78771836950768","3,88320288982541","3,13199105145414"
Böhlitz-Ehrenberg,Stimmenanteile NPD,"","0,508293204922418","6,4176245210728","3,70279548798431","4,51734337187416"
Burghausen-Rückmarsdorf,Stimmenanteile NPD,"","0","6,55278633436012","4,17963539350823","4,49709864603482"
Möckern,Stimmenanteile NPD,"","1,10669202835898","5,32354290959156","4,93772241992883","5,65656565656566"
Wahren,Stimmenanteile NPD,"","1,35036496350365","6,96496411988181","3,6118363794604","5,67978533094812"
Lützschena-Stahmeln,Stimmenanteile NPD,"","0,610771793448084","7,44212741534341","4,33618843683084","4,62911321807027"
Lindenthal,Stimmenanteile NPD,"","0,767165324127349","6,9636840134781","3,96600566572238","4,5004500450045"
Gohlis-Süd,Stimmenanteile NPD,"","0,873362445414847","6,15680615680616","2,11878009630819","2,24548626915491"
Gohlis-Mitte,Stimmenanteile NPD,"","0,915455035002693","5,95497458242556","2,8229255774166","2,77078085642317"
Gohlis-Nord,Stimmenanteile NPD,"","0,874831763122476","4,27027954038758","3,584229390681","4,31275209432206"
Eutritzsch,Stimmenanteile NPD,"","0,799822261719618","4,47019867549669","4,64579055441478","5,14705882352941"
Seehausen,Stimmenanteile NPD,"","1,37130801687764","5,12997469519209","5,52486187845304","3,61290322580645"
Wiederitzsch,Stimmenanteile NPD,"","0,898876404494382","6,24417520969245","3,28767123287671","3,33830104321908"
Mitte,Stimmenanteile NPD,"","0,473960390453084","6,02636534839925","1,92010490329228","1,58126047754973"
Nordost,Stimmenanteile NPD,"","1,20032518770025","3,97093174150013","5,52782399704197","5,62450677953942"
Ost,Stimmenanteile NPD,"","1,25808142582562","5,31213648701047","5,59269786620761","4,80893278170737"
Südost,Stimmenanteile NPD,"","1,09392318442485","8,86167146974063","4,30076350633034","3,07791117039672"
Süd,Stimmenanteile NPD,"","0,982997932751129","6,53488715149727","2,31855600030209","1,6700170094325"
Südwest,Stimmenanteile NPD,"","1,21601870798012","5,37030537030537","2,98406062189705","2,28150777905398"
West,Stimmenanteile NPD,"","1,48441886580573","6,65495970102211","4,20104621690126","4,46771841442397"
Alt-West,Stimmenanteile NPD,"","1,42807625649913","7,6352614948088","4,12196156877008","3,73826221324141"
Nordwest,Stimmenanteile NPD,"","1,02080272214059","6,64615384615385","4,34743555196263","5,2296542943884"
Nord,Stimmenanteile NPD,"","0,8932809735468","5,13751331728682","3,22113195048234","3,32391276838065"
Stadt Leipzig,Stimmenanteile NPD,"","1,12157357108833","5,57118765664452","3,76513584610133","3,3394520576848"
Zentrum,Stimmenanteile AfD,"","","","","6,66666666666667"
Zentrum-Ost,Stimmenanteile AfD,"","","","","6,31067961165049"
Zentrum-Südost,Stimmenanteile AfD,"","","","","6,9118955799466"
Zentrum-Süd,Stimmenanteile AfD,"","","","","4,98460354118553"
Zentrum-West,Stimmenanteile AfD,"","","","","6,01313794845882"
Zentrum-Nordwest,Stimmenanteile AfD,"","","","","4,93367465673726"
Zentrum-Nord,Stimmenanteile AfD,"","","","","5,88806211582012"
Schönefeld-Abtnaundorf,Stimmenanteile AfD,"","","","","8,8929219600726"
Schönefeld-Ost,Stimmenanteile AfD,"","","","","9,81775426219871"
Mockau-Süd,Stimmenanteile AfD,"","","","","11,3421550094518"
Mockau-Nord,Stimmenanteile AfD,"","","","","10,548885077187"
Thekla,Stimmenanteile AfD,"","","","","9,95628946090335"
Plaußig-Portitz,Stimmenanteile AfD,"","","","","8,9974293059126"
Neustadt-Neuschönefeld,Stimmenanteile AfD,"","","","","6,34920634920635"
Volkmarsdorf,Stimmenanteile AfD,"","","","","6,81216931216931"
Anger-Crottendorf,Stimmenanteile AfD,"","","","","7,73333333333333"
Sellerhausen-Stünz,Stimmenanteile AfD,"","","","","8,88730892285816"
Paunsdorf,Stimmenanteile AfD,"","","","","9,12610619469027"
Heiterblick,Stimmenanteile AfD,"","","","","9,32515337423313"
Mölkau,Stimmenanteile AfD,"","","","","7,80167699598979"
Engelsdorf,Stimmenanteile AfD,"","","","","7,86724031960664"
Baalsdorf,Stimmenanteile AfD,"","","","","8,09464508094645"
Althen-Kleinpösna,Stimmenanteile AfD,"","","","","10,4247104247104"
Reudnitz-Thonberg,Stimmenanteile AfD,"","","","","5,29182879377432"
Stötteritz,Stimmenanteile AfD,"","","","","6,30367257445642"
Probstheida,Stimmenanteile AfD,"","","","","7,92153904187099"
Meusdorf,Stimmenanteile AfD,"","","","","7,67932489451477"
Liebertwolkwitz,Stimmenanteile AfD,"","","","","8,397365532382"
Holzhausen,Stimmenanteile AfD,"","","","","8,97579143389199"
Südvorstadt,Stimmenanteile AfD,"","","","","3,84652370420233"
Connewitz,Stimmenanteile AfD,"","","","","4,13078579117331"
Marienbrunn,Stimmenanteile AfD,"","","","","5,384893386339"
Lößnig,Stimmenanteile AfD,"","","","","5,91280653950954"
Dölitz-Dösen,Stimmenanteile AfD,"","","","","7,75"
Schleußig,Stimmenanteile AfD,"","","","","3,8672017511857"
Plagwitz,Stimmenanteile AfD,"","","","","4,95568090249799"
Kleinzschocher,Stimmenanteile AfD,"","","","","8,1026875250702"
Großzschocher,Stimmenanteile AfD,"","","","","7,59640475500145"
Knautkleeberg-Knauthain,Stimmenanteile AfD,"","","","","9,2239467849224"
Hartmannsdorf-Knautnaundorf,Stimmenanteile AfD,"","","","","10,5675146771037"
Schönau,Stimmenanteile AfD,"","","","","8,91530460624071"
Grünau-Ost,Stimmenanteile AfD,"","","","","5,95874713521772"
Grünau-Mitte,Stimmenanteile AfD,"","","","","8,46007604562738"
Grünau-Siedlung,Stimmenanteile AfD,"","","","","8,98030127462341"
Lausen-Grünau,Stimmenanteile AfD,"","","","","10,4558404558405"
Grünau-Nord,Stimmenanteile AfD,"","","","","9,98964803312629"
Miltitz,Stimmenanteile AfD,"","","","","9,52380952380952"
Lindenau,Stimmenanteile AfD,"","","","","3,68833563854311"
Altlindenau,Stimmenanteile AfD,"","","","","6,20865139949109"
Neulindenau,Stimmenanteile AfD,"","","","","9,33186085035892"
Leutzsch,Stimmenanteile AfD,"","","","","8,05369127516779"
Böhlitz-Ehrenberg,Stimmenanteile AfD,"","","","","9,03468674374832"
Burghausen-Rückmarsdorf,Stimmenanteile AfD,"","","","","10,2514506769826"
Möckern,Stimmenanteile AfD,"","","","","9,41919191919192"
Wahren,Stimmenanteile AfD,"","","","","9,92844364937388"
Lützschena-Stahmeln,Stimmenanteile AfD,"","","","","10,5409927495817"
Lindenthal,Stimmenanteile AfD,"","","","","7,96579657965797"
Gohlis-Süd,Stimmenanteile AfD,"","","","","7,76816871491428"
Gohlis-Mitte,Stimmenanteile AfD,"","","","","7,57346767422334"
Gohlis-Nord,Stimmenanteile AfD,"","","","","8,65653118212845"
Eutritzsch,Stimmenanteile AfD,"","","","","9,87394957983193"
Seehausen,Stimmenanteile AfD,"","","","","10,3225806451613"
Wiederitzsch,Stimmenanteile AfD,"","","","","10,2533532041729"
Mitte,Stimmenanteile AfD,"","","","","5,71791038013683"
Nordost,Stimmenanteile AfD,"","","","","9,88593155893536"
Ost,Stimmenanteile AfD,"","","","","8,14538013256817"
Südost,Stimmenanteile AfD,"","","","","6,81784496813399"
Süd,Stimmenanteile AfD,"","","","","4,62733879696923"
Südwest,Stimmenanteile AfD,"","","","","6,18147645400439"
West,Stimmenanteile AfD,"","","","","8,84263555614477"
Alt-West,Stimmenanteile AfD,"","","","","7,68453583739451"
Nordwest,Stimmenanteile AfD,"","","","","9,41141905787876"
Nord,Stimmenanteile AfD,"","","","","8,61348968659046"
Stadt Leipzig,Stimmenanteile AfD,"","","","","7,31187560000422"
